vcd-oxide-parser/test/NextCoreTest.vcd
$date
	Fri Jan 27 10:13:28 2023
$end
$version
	Icarus Verilog
$end
$timescale
	1s
$end
$scope module NextCoreTest $end
$var wire 32 ! io_uart_io_reg [31:0] $end
$var wire 32 " io_uart_csr_reg [31:0] $end
$var wire 32 # io_gpio_io_reg [31:0] $end
$var wire 32 $ io_data [31:0] $end
$var reg 1 % clk $end
$var reg 8 & io_addr [7:0] $end
$var reg 1 ' rst $end
$scope module uut $end
$var wire 1 % clk $end
$var wire 8 ( io_addr [7:0] $end
$var wire 8 ) io_uart_io_rhr [7:0] $end
$var wire 1 * io_uart_rx_busy $end
$var wire 1 + io_uart_tx_busy $end
$var wire 1 , mem_read $end
$var wire 32 - mem_wdata [31:0] $end
$var wire 32 . pc_next [31:0] $end
$var wire 32 / reg_wdata [31:0] $end
$var wire 1 ' rst $end
$var wire 32 0 wdata_ext [31:0] $end
$var wire 2 1 result_src [1:0] $end
$var wire 32 2 result_out [31:0] $end
$var wire 1 3 reg_write $end
$var wire 5 4 reg_waddr [4:0] $end
$var wire 5 5 reg_raddr2 [4:0] $end
$var wire 5 6 reg_raddr1 [4:0] $end
$var wire 32 7 rdata_ext [31:0] $end
$var wire 32 8 rdata [31:0] $end
$var wire 32 9 rd2_result [31:0] $end
$var wire 32 : rd2 [31:0] $end
$var wire 32 ; rd1_result [31:0] $end
$var wire 32 < rd1 [31:0] $end
$var wire 1 = pc_wen $end
$var wire 32 > pc [31:0] $end
$var wire 7 ? opcode [6:0] $end
$var wire 32 @ old_pc [31:0] $end
$var wire 1 A mem_write $end
$var wire 32 B mem_rdata [31:0] $end
$var wire 32 C mem_addr [31:0] $end
$var wire 1 D io_uart_send $end
$var wire 1 E io_uart_read $end
$var wire 8 F io_uart_io_thr [7:0] $end
$var wire 32 G io_uart_io_reg [31:0] $end
$var wire 32 H io_uart_csr_reg [31:0] $end
$var wire 32 I io_gpio_io_reg [31:0] $end
$var wire 1 J instr_flop_wen $end
$var wire 32 K instr [31:0] $end
$var wire 3 L imm_sel [2:0] $end
$var wire 32 M imm_ext [31:0] $end
$var wire 7 N funct7 [6:0] $end
$var wire 3 O funct3 [2:0] $end
$var wire 1 P alu_zero $end
$var wire 32 Q alu_result [31:0] $end
$var wire 32 R alu_out [31:0] $end
$var wire 4 S alu_control [3:0] $end
$var wire 2 T alu_b_src [1:0] $end
$var wire 32 U alu_b [31:0] $end
$var wire 2 V alu_a_src [1:0] $end
$var wire 32 W alu_a [31:0] $end
$var wire 1 X addr_src $end
$var reg 32 Y io_data [31:0] $end
$scope module alu $end
$var wire 1 Z neg $end
$var wire 1 P zero $end
$var wire 4 [ control [3:0] $end
$var wire 32 \ b [31:0] $end
$var wire 32 ] a [31:0] $end
$var parameter 32 ^ ADD $end
$var parameter 32 _ AND $end
$var parameter 32 ` OR $end
$var parameter 32 a SLL $end
$var parameter 32 b SLT $end
$var parameter 32 c SLTU $end
$var parameter 32 d SRA $end
$var parameter 32 e SRL $end
$var parameter 32 f SUB $end
$var parameter 32 g XOR $end
$var reg 1 h carry $end
$var reg 32 i out [31:0] $end
$var reg 1 j overflow $end
$upscope $end
$scope module alu_a_mux $end
$var wire 2 k select [1:0] $end
$var wire 32 l d11 [31:0] $end
$var wire 32 m d10 [31:0] $end
$var wire 32 n d01 [31:0] $end
$var wire 32 o d00 [31:0] $end
$var parameter 32 p WIDTH $end
$var reg 32 q q [31:0] $end
$upscope $end
$scope module alu_b_mux $end
$var wire 32 r d10 [31:0] $end
$var wire 32 s d11 [31:0] $end
$var wire 2 t select [1:0] $end
$var wire 32 u d01 [31:0] $end
$var wire 32 v d00 [31:0] $end
$var parameter 32 w WIDTH $end
$var reg 32 x q [31:0] $end
$upscope $end
$scope module alu_out_flop $end
$var wire 1 % clk $end
$var wire 32 y in [31:0] $end
$var wire 1 ' rst $end
$var parameter 32 z WIDTH $end
$var reg 32 { out [31:0] $end
$upscope $end
$scope module alu_result_mux $end
$var wire 32 | d00 [31:0] $end
$var wire 32 } d10 [31:0] $end
$var wire 2 ~ select [1:0] $end
$var wire 32 !" d11 [31:0] $end
$var wire 32 "" d01 [31:0] $end
$var parameter 32 #" WIDTH $end
$var reg 32 $" q [31:0] $end
$upscope $end
$scope module controller $end
$var wire 1 P alu_zero $end
$var wire 1 % clk $end
$var wire 3 %" funct3 [2:0] $end
$var wire 7 &" funct7 [6:0] $end
$var wire 1 , mem_read $end
$var wire 7 '" opcode [6:0] $end
$var wire 1 = pc_wen $end
$var wire 1 ' rst $end
$var wire 3 (" imm_sel [2:0] $end
$var wire 4 )" alu_control [3:0] $end
$var parameter 7 *" OP_AUIPC $end
$var parameter 7 +" OP_B $end
$var parameter 7 ," OP_I $end
$var parameter 7 -" OP_J $end
$var parameter 7 ." OP_JR $end
$var parameter 7 /" OP_LUI $end
$var parameter 7 0" OP_LW $end
$var parameter 7 1" OP_R $end
$var parameter 7 2" OP_SW $end
$var reg 1 X addr_src $end
$var reg 2 3" alu_a_src [1:0] $end
$var reg 2 4" alu_b_src [1:0] $end
$var reg 3 5" alu_op [2:0] $end
$var reg 1 6" branch $end
$var reg 1 J instr_flop_wen $end
$var reg 1 A mem_write $end
$var reg 1 7" pc_update $end
$var reg 1 3 reg_write $end
$var reg 2 8" result_src [1:0] $end
$var reg 32 9" next_state [31:0] $end
$var reg 32 :" state [31:0] $end
$scope module alu_decoder $end
$var wire 3 ;" alu_op [2:0] $end
$var wire 3 <" funct3 [2:0] $end
$var wire 7 =" funct7 [6:0] $end
$var wire 13 >" alu_instr [12:0] $end
$var reg 4 ?" alu_control [3:0] $end
$upscope $end
$scope module instr_decoder $end
$var wire 7 @" opcode [6:0] $end
$var reg 3 A" imm_sel [2:0] $end
$upscope $end
$upscope $end
$scope module counter $end
$var wire 1 % clk $end
$var wire 32 B" next [31:0] $end
$var wire 1 ' rst $end
$var wire 1 = wen $end
$var reg 32 C" pc [31:0] $end
$upscope $end
$scope module imm_gen $end
$var wire 3 D" imm_sel [2:0] $end
$var wire 32 E" instr [31:0] $end
$var wire 32 F" imm_s [31:0] $end
$var wire 32 G" imm_j [31:0] $end
$var wire 32 H" imm_i [31:0] $end
$var wire 32 I" imm_b [31:0] $end
$var reg 32 J" imm_u [31:0] $end
$var reg 32 K" out [31:0] $end
$scope module b_type $end
$var wire 13 L" in [12:0] $end
$var wire 32 M" out [31:0] $end
$var parameter 32 N" WIDTH $end
$upscope $end
$scope module i_type $end
$var wire 12 O" in [11:0] $end
$var wire 32 P" out [31:0] $end
$var parameter 32 Q" WIDTH $end
$upscope $end
$scope module j_type $end
$var wire 21 R" in [20:0] $end
$var wire 32 S" out [31:0] $end
$var parameter 32 T" WIDTH $end
$upscope $end
$scope module s_type $end
$var wire 12 U" in [11:0] $end
$var wire 32 V" out [31:0] $end
$var parameter 32 W" WIDTH $end
$upscope $end
$upscope $end
$scope module instr_flop $end
$var wire 1 % clk $end
$var wire 1 J en $end
$var wire 1 ' rst $end
$var wire 32 X" in [31:0] $end
$var parameter 32 Y" WIDTH $end
$var reg 32 Z" out [31:0] $end
$upscope $end
$scope module mem $end
$var wire 2 [" ben [1:0] $end
$var wire 1 % clk $end
$var wire 8 \" io_uart_io_rhr [7:0] $end
$var wire 1 * io_uart_rx_busy $end
$var wire 1 + io_uart_tx_busy $end
$var wire 16 ]" raddr [15:0] $end
$var wire 1 , ren $end
$var wire 16 ^" waddr [15:0] $end
$var wire 32 _" wdata [31:0] $end
$var wire 1 A wen $end
$var wire 2 `" wen_src [1:0] $end
$var wire 2 a" ren_src [1:0] $end
$var wire 32 b" ram_out [31:0] $end
$var wire 2 c" out_src [1:0] $end
$var wire 1 D io_uart_send $end
$var wire 1 E io_uart_read $end
$var wire 8 d" io_uart_io_thr [7:0] $end
$var wire 32 e" io_uart_io_reg [31:0] $end
$var wire 32 f" io_uart_csr_reg [31:0] $end
$var wire 32 g" io_out [31:0] $end
$var wire 32 h" io_gpio_io_reg [31:0] $end
$var reg 32 i" rdata [31:0] $end
$scope module decoder $end
$var wire 16 j" addr [15:0] $end
$var wire 1 , ren $end
$var wire 1 A wen $end
$var reg 2 k" out_src [1:0] $end
$var reg 2 l" ren_src [1:0] $end
$var reg 2 m" wen_src [1:0] $end
$upscope $end
$scope module io $end
$var wire 1 % clk $end
$var wire 32 n" io_gpio_io_reg [31:0] $end
$var wire 8 o" io_uart_io_rhr [7:0] $end
$var wire 1 * io_uart_rx_busy $end
$var wire 1 + io_uart_tx_busy $end
$var wire 16 p" raddr [15:0] $end
$var wire 1 q" ren $end
$var wire 16 r" waddr [15:0] $end
$var wire 32 s" wdata [31:0] $end
$var wire 1 t" wen $end
$var wire 1 D io_uart_send $end
$var wire 1 E io_uart_read $end
$var wire 8 u" io_uart_io_thr [7:0] $end
$var wire 32 v" io_uart_io_reg [31:0] $end
$var wire 32 w" io_uart_csr_reg [31:0] $end
$var parameter 32 x" MEM_DEPTH $end
$var parameter 32 y" MEM_WIDTH $end
$var reg 32 z" rdata [31:0] $end
$var reg 1 {" rx_was_busy $end
$var reg 1 |" tx_was_busy $end
$upscope $end
$scope module ram $end
$var wire 2 }" ben [1:0] $end
$var wire 1 % clk $end
$var wire 16 ~" raddr [15:0] $end
$var wire 1 !# ren $end
$var wire 16 "# waddr [15:0] $end
$var wire 32 ## wdata [31:0] $end
$var wire 1 $# wen $end
$var parameter 32 %# MEM_DEPTH $end
$var parameter 32 &# MEM_WIDTH $end
$var reg 32 '# rdata [31:0] $end
$upscope $end
$upscope $end
$scope module mem_addr_mux $end
$var wire 32 (# d0 [31:0] $end
$var wire 32 )# d1 [31:0] $end
$var wire 1 X select $end
$var parameter 32 *# WIDTH $end
$var reg 32 +# q [31:0] $end
$upscope $end
$scope module pc_flop $end
$var wire 1 % clk $end
$var wire 1 J en $end
$var wire 32 ,# in [31:0] $end
$var wire 1 ' rst $end
$var parameter 32 -# WIDTH $end
$var reg 32 .# out [31:0] $end
$upscope $end
$scope module rd1_flop $end
$var wire 1 % clk $end
$var wire 1 ' rst $end
$var wire 32 /# in [31:0] $end
$var parameter 32 0# WIDTH $end
$var reg 32 1# out [31:0] $end
$upscope $end
$scope module rd2_flop $end
$var wire 1 % clk $end
$var wire 1 ' rst $end
$var wire 32 2# in [31:0] $end
$var parameter 32 3# WIDTH $end
$var reg 32 4# out [31:0] $end
$upscope $end
$scope module rd_trunc $end
$var wire 3 5# funct3 [2:0] $end
$var wire 32 6# in [31:0] $end
$var reg 32 7# out [31:0] $end
$upscope $end
$scope module rdata_flop $end
$var wire 1 % clk $end
$var wire 32 8# in [31:0] $end
$var wire 1 ' rst $end
$var parameter 32 9# WIDTH $end
$var reg 32 :# out [31:0] $end
$upscope $end
$scope module regfile $end
$var wire 1 % clk $end
$var wire 5 ;# raddr1 [4:0] $end
$var wire 5 <# raddr2 [4:0] $end
$var wire 32 =# rd1 [31:0] $end
$var wire 32 ># rd2 [31:0] $end
$var wire 5 ?# waddr [4:0] $end
$var wire 32 @# wdata [31:0] $end
$var wire 1 3 we $end
$var parameter 32 A# MEM_DEPTH $end
$scope begin $ivl_for_loop0 $end
$var integer 32 B# i [31:0] $end
$upscope $end
$upscope $end
$scope module result_ext $end
$var wire 3 C# funct3 [2:0] $end
$var wire 32 D# in [31:0] $end
$var wire 32 E# h [31:0] $end
$var wire 32 F# b [31:0] $end
$var reg 32 G# out [31:0] $end
$scope module b_ext $end
$var wire 8 H# in [7:0] $end
$var wire 32 I# out [31:0] $end
$var parameter 32 J# WIDTH $end
$upscope $end
$scope module h_ext $end
$var wire 16 K# in [15:0] $end
$var wire 32 L# out [31:0] $end
$var parameter 32 M# WIDTH $end
$upscope $end
$upscope $end
$upscope $end
$scope task _assert $end
$var reg 1 N# condition $end
$var reg 8192 O# message [8191:0] $end
$upscope $end
$upscope $end
$enddefinitions $end
$comment Show the parameter values. $end
$dumpall
b10000 M#
b1000 J#
b100000 A#
b100000 9#
b100000 3#
b100000 0#
b100000 -#
b100000 *#
b100000 &#
b100000000000 %#
b100000 y"
b100000 x"
b100000 Y"
b1100 W"
b10101 T"
b1100 Q"
b1101 N"
b100011 2"
b110011 1"
b11 0"
b110111 /"
b1100111 ."
b1101111 -"
b10011 ,"
b1100011 +"
b10111 *"
b100000 #"
b100000 z
b100000 w
b100000 p
b101 g
b1 f
b1000 e
b1001 d
b110 c
b100 b
b111 a
b11 `
b10 _
b0 ^
$end
#0
$dumpvars
bx O#
xN#
b0 L#
b0 K#
b0 I#
b0 H#
b0 G#
b0 F#
b0 E#
b0 D#
b0 C#
b100000 B#
b0 @#
b0 ?#
b0 >#
b0 =#
b0 <#
b0 ;#
b0 :#
bx 8#
b0 7#
b0 6#
b0 5#
b0 4#
b0 2#
b0 1#
b0 /#
b0 .#
b0 ,#
b0 +#
b0 )#
b0 (#
bx '#
0$#
b0 ##
b0 "#
1!#
b0 ~"
b0 }"
0|"
0{"
b0 z"
b0zz00 w"
b0zzzzzzzz00000000 v"
b0 u"
0t"
b0 s"
b0 r"
0q"
b0 p"
bz o"
b0 n"
b0 m"
b0 l"
b0 k"
b0 j"
bx i"
b0 h"
b0 g"
b0zz00 f"
b0zzzzzzzz00000000 e"
b0 d"
b0 c"
bx b"
b0 a"
b0 `"
b0 _"
b0 ^"
b0 ]"
bz \"
b0 ["
b0 Z"
bx X"
b0 V"
b0 U"
b0 S"
b0 R"
b0 P"
b0 O"
b0 M"
b0 L"
b0 K"
b0 J"
b0 I"
b0 H"
b0 G"
b0 F"
b0 E"
b0 D"
b0 C"
b0 B"
b0 A"
b0 @"
b0 ?"
b0 >"
b0 ="
b0 <"
b0 ;"
b1110 :"
b0 9"
b0 8"
07"
06"
b0 5"
b0 4"
b0 3"
b0 )"
b0 ("
b0 '"
b0 &"
b0 %"
b0 $"
b0 ""
b0 !"
b0 ~
b0 }
b0 |
b0 {
b0 y
b0 x
b0 v
b0 u
b0 t
b11111111111111111111111111111110 s
b100 r
b0 q
b0 o
b0 n
b0 m
b0 l
b0 k
0j
b0 i
0h
b0 ]
b0 \
b0 [
1Z
bx Y
0X
b0 W
b0 V
b0 U
b0 T
b0 S
b0 R
b0 Q
1P
b0 O
b0 N
b0 M
b0 L
b0 K
0J
b0 I
b0zz00 H
b0zzzzzzzz00000000 G
b0 F
0E
0D
b0 C
bx B
0A
b0 @
b0 ?
b0 >
0=
b0 <
b0 ;
b0 :
b0 9
b0 8
b0 7
b0 6
b0 5
b0 4
03
b0 2
b0 1
b0 0
b0 /
b0 .
b0 -
1,
z+
z*
bz )
bx (
0'
bx &
1%
bx $
b0 #
b0zz00 "
b0zzzzzzzz00000000 !
$end
#1
0%
#2
b110010111 B
b110010111 X"
b110010111 i"
b110010111 8#
b110010111 b"
b110010111 '#
1%
1'
#3
0%
0'
#4
b100 .
b100 B"
b100 /
b100 @#
b100 2
b100 $"
b100 )#
0P
b100 Q
b100 i
b100 y
b100 }
1=
b100 U
b100 \
b100 x
b11111111111111111111111110010111 7
b11111111111111111111111110010111 ""
b11111111111111111111111110010111 G#
b11111111111111111111111110010111 F#
b11111111111111111111111110010111 I#
b10010111 H#
b110010111 E#
b110010111 L#
b110010111 K#
b10 1
b10 ~
b10 8"
17"
b10 T
b10 t
b10 4"
1J
b1 9"
b110010111 8
b110010111 :#
b110010111 D#
b0 :"
1%
#5
0%
#6
1P
0=
b0 U
b0 \
b0 x
b1 ]"
b1 p"
b1 ~"
b1 ^"
b1 j"
b1 r"
b1 "#
b0 Q
b0 i
b0 y
b0 }
b1 V
b1 k
b1 3"
07"
b0 1
b0 ~
b0 8"
b1 T
b1 t
b1 4"
0J
b1101 9"
b100 C
b100 +#
b100000000010 I"
b100000000010 M"
b100000000010 L"
b11 F"
b11 V"
b11 U"
b10111 ?
b10111 '"
b10111 @"
b11 4
b11 ?#
b0 W
b0 ]
b0 q
b1 :"
b100 >
b100 o
b100 C"
b100 (#
b100 ,#
b110010111 K
b110010111 E"
b110010111 Z"
b100 R
b100 l
b100 {
b100 |
1%
#7
0%
#8
b0 .
b0 B"
b0 /
b0 @#
b0 2
b0 $"
b0 )#
b1 T
b1 t
b1 4"
b1 V
b1 k
b1 3"
b111 9"
b110000000000011000000110010011 B
b110000000000011000000110010011 X"
b110000000000011000000110010011 i"
b110000000000011000000110010011 8#
b0 R
b0 l
b0 {
b0 |
b1101 :"
b110000000000011000000110010011 b"
b110000000000011000000110010011 '#
1%
#9
0%
#10
0P
b100 Q
b100 i
b100 y
b100 }
b100 W
b100 ]
b100 q
13
b0 T
b0 t
b0 4"
b0 V
b0 k
b0 3"
b0 9"
b11111111111111111111111110010011 7
b11111111111111111111111110010011 ""
b11111111111111111111111110010011 G#
b11111111111111111111111110010011 F#
b11111111111111111111111110010011 I#
b10010011 H#
b11111111111111111000000110010011 E#
b11111111111111111000000110010011 L#
b1000000110010011 K#
b111 :"
b110000000000011000000110010011 8
b110000000000011000000110010011 :#
b110000000000011000000110010011 D#
1%
#11
0%
#12
b1000 Q
b1000 i
b1000 y
b1000 }
1=
b100 U
b100 \
b100 x
b1000 .
b1000 B"
b1000 /
b1000 @#
b1000 2
b1000 $"
b1000 )#
b10 1
b10 ~
b10 8"
17"
b10 T
b10 t
b10 4"
1J
03
b1 9"
b100 R
b100 l
b100 {
b100 |
b0 :"
1%
#13
0%
#14
0=
b1100000000 U
b1100000000 \
b1100000000 x
b10 ]"
b10 p"
b10 ~"
b10 ^"
b10 j"
b10 r"
b10 "#
b1100000000 M
b1100000000 u
b1100000000 !"
b1100000000 K"
b1100000100 Q
b1100000100 i
b1100000100 y
b1100000100 }
b1 V
b1 k
b1 3"
07"
b0 1
b0 ~
b0 8"
b1 T
b1 t
b1 4"
0J
b1000 9"
b1000 C
b1000 +#
b11000001100000000 G"
b11000001100000000 S"
b11000001100000000 R"
b101100000010 I"
b101100000010 M"
b101100000010 L"
b1100000011 F"
b1100000011 V"
b1100000011 U"
b1100000000 H"
b1100000000 P"
b1100000000 O"
b11000 >"
b11000 N
b11000 &"
b11000 ="
b10011 ?
b10011 '"
b10011 @"
b11 6
b11 ;#
b110000000000011000000000000000 J"
b100 W
b100 ]
b100 q
b1 :"
b1000 >
b1000 o
b1000 C"
b1000 (#
b1000 ,#
b110000000000011000000110010011 K
b110000000000011000000110010011 E"
b110000000000011000000110010011 Z"
b1000 R
b1000 l
b1000 {
b1000 |
b100 @
b100 n
b100 .#
1%
#15
0%
#16
b1100000000 Q
b1100000000 i
b1100000000 y
b1100000000 }
b0 W
b0 ]
b0 q
b1100000100 .
b1100000100 B"
b1100000100 /
b1100000100 @#
b1100000100 2
b1100000100 $"
b1100000100 )#
b100000011000 >"
b10 5"
b10 ;"
b1 T
b1 t
b1 4"
b10 V
b10 k
b10 3"
b111 9"
b100000000000000000000100010011 B
b100000000000000000000100010011 X"
b100000000000000000000100010011 i"
b100000000000000000000100010011 8#
b1100000100 R
b1100000100 l
b1100000100 {
b1100000100 |
b1000 :"
b100000000000000000000100010011 b"
b100000000000000000000100010011 '#
1%
#17
0%
#18
b1000 Q
b1000 i
b1000 y
b1000 }
b0 U
b0 \
b0 x
b1000 W
b1000 ]
b1000 q
13
b11000 >"
b0 5"
b0 ;"
b0 T
b0 t
b0 4"
b0 V
b0 k
b0 3"
b0 9"
b1100000000 .
b1100000000 B"
b1100000000 /
b1100000000 @#
b1100000000 2
b1100000000 $"
b1100000000 )#
b10011 7
b10011 ""
b10011 G#
b10011 F#
b10011 I#
b10011 H#
b100010011 E#
b100010011 L#
b100010011 K#
b111 :"
b1100000000 R
b1100000000 l
b1100000000 {
b1100000000 |
b100000000000000000000100010011 8
b100000000000000000000100010011 :#
b100000000000000000000100010011 D#
1%
#19
0%
#20
b1100 Q
b1100 i
b1100 y
b1100 }
1=
b100 U
b100 \
b100 x
b1100 .
b1100 B"
b1100 /
b1100 @#
b1100 2
b1100 $"
b1100 )#
b10 1
b10 ~
b10 8"
17"
b10 T
b10 t
b10 4"
1J
03
b1 9"
b1000 R
b1000 l
b1000 {
b1000 |
b0 :"
b1100000000 ;
b1100000000 /#
b1100000000 =#
1%
#21
0%
#22
0=
b1000000000 U
b1000000000 \
b1000000000 x
b11 ]"
b11 p"
b11 ~"
b11 ^"
b11 j"
b11 r"
b11 "#
b1000000000 M
b1000000000 u
b1000000000 !"
b1000000000 K"
b1000001000 Q
b1000001000 i
b1000001000 y
b1000001000 }
b1 V
b1 k
b1 3"
07"
b0 1
b0 ~
b0 8"
b1 T
b1 t
b1 4"
0J
b1000 9"
b1100 C
b1100 +#
b1000000000 G"
b1000000000 S"
b1000000000 R"
b1000000010 I"
b1000000010 M"
b1000000010 L"
b1000000010 F"
b1000000010 V"
b1000000010 U"
b1000000000 H"
b1000000000 P"
b1000000000 O"
b10000 >"
b10000 N
b10000 &"
b10000 ="
b10 4
b10 ?#
b0 ;
b0 /#
b0 =#
b0 6
b0 ;#
b100000000000000000000000000000 J"
b1000 W
b1000 ]
b1000 q
b1 :"
b1100 >
b1100 o
b1100 C"
b1100 (#
b1100 ,#
b100000000000000000000100010011 K
b100000000000000000000100010011 E"
b100000000000000000000100010011 Z"
b1100000000 <
b1100000000 m
b1100000000 1#
b1100 R
b1100 l
b1100 {
b1100 |
b1000 @
b1000 n
b1000 .#
1%
#23
0%
#24
b1000000000 Q
b1000000000 i
b1000000000 y
b1000000000 }
b1000001000 .
b1000001000 B"
b1000001000 /
b1000001000 @#
b1000001000 2
b1000001000 $"
b1000001000 )#
b0 W
b0 ]
b0 q
b100000010000 >"
b10 5"
b10 ;"
b1 T
b1 t
b1 4"
b10 V
b10 k
b10 3"
b111 9"
b10000010000110011 B
b10000010000110011 X"
b10000010000110011 i"
b10000010000110011 8#
b1000001000 R
b1000001000 l
b1000001000 {
b1000001000 |
b0 <
b0 m
b0 1#
b1000 :"
b10000010000110011 b"
b10000010000110011 '#
1%
#25
0%
#26
b1100 Q
b1100 i
b1100 y
b1100 }
b0 U
b0 \
b0 x
b1100 W
b1100 ]
b1100 q
13
b10000 >"
b0 5"
b0 ;"
b0 T
b0 t
b0 4"
b0 V
b0 k
b0 3"
b0 9"
b1000000000 .
b1000000000 B"
b1000000000 /
b1000000000 @#
b1000000000 2
b1000000000 $"
b1000000000 )#
b110011 7
b110011 ""
b110011 G#
b110011 F#
b110011 I#
b110011 H#
b10000110011 E#
b10000110011 L#
b10000110011 K#
b111 :"
b1000000000 R
b1000000000 l
b1000000000 {
b1000000000 |
b10000010000110011 8
b10000010000110011 :#
b10000010000110011 D#
1%
#27
0%
#28
b10000 Q
b10000 i
b10000 y
b10000 }
1=
b100 U
b100 \
b100 x
b10000 .
b10000 B"
b10000 /
b10000 @#
b10000 2
b10000 $"
b10000 )#
b10 1
b10 ~
b10 8"
17"
b10 T
b10 t
b10 4"
1J
03
b1 9"
b1100 R
b1100 l
b1100 {
b1100 |
b0 :"
1%
#29
0%
#30
0=
b0 U
b0 \
b0 x
b100 ]"
b100 p"
b100 ~"
b100 ^"
b100 j"
b100 r"
b100 "#
b0 M
b0 u
b0 !"
b0 K"
b1100 Q
b1100 i
b1100 y
b1100 }
b1 V
b1 k
b1 3"
07"
b0 1
b0 ~
b0 8"
b1 T
b1 t
b1 4"
0J
b110 9"
b10000 C
b10000 +#
b10000000000000000 G"
b10000000000000000 S"
b10000000000000000 R"
b1000 I"
b1000 M"
b1000 L"
b1000 F"
b1000 V"
b1000 U"
b0 H"
b0 P"
b0 O"
b0 >"
b0 N
b0 &"
b0 ="
b110011 ?
b110011 '"
b110011 @"
b1000 4
b1000 ?#
b1000000000 ;
b1000000000 /#
b1000000000 =#
b10 6
b10 ;#
b10000000000000000 J"
b1100 W
b1100 ]
b1100 q
b1 :"
b10000 >
b10000 o
b10000 C"
b10000 (#
b10000 ,#
b10000010000110011 K
b10000010000110011 E"
b10000010000110011 Z"
b10000 R
b10000 l
b10000 {
b10000 |
b1100 @
b1100 n
b1100 .#
1%
#31
0%
#32
b1000000000 Q
b1000000000 i
b1000000000 y
b1000000000 }
b1100 .
b1100 B"
b1100 /
b1100 @#
b1100 2
b1100 $"
b1100 )#
b1000000000 W
b1000000000 ]
b1000000000 q
b100000000000 >"
b10 5"
b10 ;"
b0 T
b0 t
b0 4"
b10 V
b10 k
b10 3"
b111 9"
b10000000000000001101111 B
b10000000000000001101111 X"
b10000000000000001101111 i"
b10000000000000001101111 8#
b1100 R
b1100 l
b1100 {
b1100 |
b1000000000 <
b1000000000 m
b1000000000 1#
b110 :"
b10000000000000001101111 b"
b10000000000000001101111 '#
1%
#33
0%
#34
b10000 Q
b10000 i
b10000 y
b10000 }
b10000 W
b10000 ]
b10000 q
13
b0 >"
b0 5"
b0 ;"
b0 V
b0 k
b0 3"
b0 9"
b1000000000 .
b1000000000 B"
b1000000000 /
b1000000000 @#
b1000000000 2
b1000000000 $"
b1000000000 )#
b1101111 7
b1101111 ""
b1101111 G#
b1101111 F#
b1101111 I#
b1101111 H#
b1101111 E#
b1101111 L#
b1101111 K#
b111 :"
b1000000000 R
b1000000000 l
b1000000000 {
b1000000000 |
b10000000000000001101111 8
b10000000000000001101111 :#
b10000000000000001101111 D#
1%
#35
0%
#36
b10100 Q
b10100 i
b10100 y
b10100 }
1=
b100 U
b100 \
b100 x
b10100 .
b10100 B"
b10100 /
b10100 @#
b10100 2
b10100 $"
b10100 )#
b10 1
b10 ~
b10 8"
17"
b10 T
b10 t
b10 4"
1J
03
b1 9"
b10000 R
b10000 l
b10000 {
b10000 |
b0 :"
1%
#37
0%
#38
0=
b101 ]"
b101 p"
b101 ~"
b101 ^"
b101 j"
b101 r"
b101 "#
b100 M
b100 u
b100 !"
b100 K"
b11 L
b11 ("
b11 A"
b11 D"
b10100 Q
b10100 i
b10100 y
b10100 }
b1 V
b1 k
b1 3"
07"
b0 1
b0 ~
b0 8"
b1 T
b1 t
b1 4"
0J
b1010 9"
b10100 C
b10100 +#
b100 G"
b100 S"
b100 R"
b0 I"
b0 M"
b0 L"
b0 F"
b0 V"
b0 U"
b100 H"
b100 P"
b100 O"
b1101111 ?
b1101111 '"
b1101111 @"
b0 4
b0 ?#
b100 5
b100 <#
b0 ;
b0 /#
b0 =#
b0 6
b0 ;#
b10000000000000000000000 J"
b10000 W
b10000 ]
b10000 q
b1 :"
b10100 >
b10100 o
b10100 C"
b10100 (#
b10100 ,#
b10000000000000001101111 K
b10000000000000001101111 E"
b10000000000000001101111 Z"
b10100 R
b10100 l
b10100 {
b10100 |
b10000 @
b10000 n
b10000 .#
1%
#39
0%
#40
1=
17"
b10 T
b10 t
b10 4"
b1 V
b1 k
b1 3"
b111 9"
b11111110000000010000000100010011 B
b11111110000000010000000100010011 X"
b11111110000000010000000100010011 i"
b11111110000000010000000100010011 8#
b0 <
b0 m
b0 1#
b1010 :"
b11111110000000010000000100010011 b"
b11111110000000010000000100010011 '#
1%
#41
0%
#42
0=
b0 U
b0 \
b0 x
b10100 W
b10100 ]
b10100 q
13
07"
b0 T
b0 t
b0 4"
b0 V
b0 k
b0 3"
b0 9"
b10011 7
b10011 ""
b10011 G#
b10011 F#
b10011 I#
b10011 H#
b100010011 E#
b100010011 L#
b100010011 K#
b111 :"
b11111110000000010000000100010011 8
b11111110000000010000000100010011 :#
b11111110000000010000000100010011 D#
1%
#43
0%
#44
b11000 .
b11000 B"
b11000 /
b11000 @#
b11000 2
b11000 $"
b11000 )#
b11000 Q
b11000 i
b11000 y
b11000 }
1=
b100 U
b100 \
b100 x
b10 1
b10 ~
b10 8"
17"
b10 T
b10 t
b10 4"
1J
03
b1 9"
b0 :"
1%
#45
0%
#46
0Z
0=
b11111111111111111111111111100000 U
b11111111111111111111111111100000 \
b11111111111111111111111111100000 x
b110 ]"
b110 p"
b110 ~"
b110 ^"
b110 j"
b110 r"
b110 "#
b11111111111111111111111111100000 M
b11111111111111111111111111100000 u
b11111111111111111111111111100000 !"
b11111111111111111111111111100000 K"
b0 L
b0 ("
b0 A"
b0 D"
b11111111111111111111111111110100 Q
b11111111111111111111111111110100 i
b11111111111111111111111111110100 y
b11111111111111111111111111110100 }
b1 V
b1 k
b1 3"
07"
b0 1
b0 ~
b0 8"
b1 T
b1 t
b1 4"
0J
b1000 9"
b11000 C
b11000 +#
b11111111111100010000011111100000 G"
b11111111111100010000011111100000 S"
b100010000011111100000 R"
b11111111111111111111011111100010 I"
b11111111111111111111011111100010 M"
b1011111100010 L"
b11111111111111111111111111100010 F"
b11111111111111111111111111100010 V"
b111111100010 U"
b11111111111111111111111111100000 H"
b11111111111111111111111111100000 P"
b111111100000 O"
b1111111 >"
b1111111 N
b1111111 &"
b1111111 ="
b10011 ?
b10011 '"
b10011 @"
b10 4
b10 ?#
b0 5
b0 <#
b1000000000 ;
b1000000000 /#
b1000000000 =#
b10 6
b10 ;#
b11111110000000010000000000000000 J"
b10100 W
b10100 ]
b10100 q
b1 :"
b11000 >
b11000 o
b11000 C"
b11000 (#
b11000 ,#
b11111110000000010000000100010011 K
b11111110000000010000000100010011 E"
b11111110000000010000000100010011 Z"
b11000 R
b11000 l
b11000 {
b11000 |
b10100 @
b10100 n
b10100 .#
1%
#47
0%
